Chutes and Ladders
…
Hooray! A complete game. This one appears to have been completed in 17 moves after hitting three chutes and one ladder.

Simulating lots of games

Okay, so Ive got the code for simulating a game of Chutes and Ladders and in the example above, I finished a game in just 17 moves. Is that average or did I finish a bit sooner than normal?

To answer this question, Ill just run the simulate_game function a whole bunch of times and then see if I can see some generalizations. Ill accomplish this with map from the purrr package.

set.seed(1)
games <- tibble(game_num = 1:1000) %>%
  mutate(game = map(game_num, simulate_game)) %>%
  unnest()
games

## # A tibble: 36,856 x 7
##    game_num turn_num start  roll  land chute_or_ladder   end
##       <int>    <int> <dbl> <int> <dbl> <chr>           <dbl>
##  1        1        1     0     2     2 <NA>                2
##  2        1        2     2     3     5 <NA>                5
##  3        1        3     5     4     9 chute              31
##  4        1        4    31     6    37 <NA>               37
##  5        1        5    37     2    39 <NA>               39
##  6        1        6    39     6    45 <NA>               45
##  7        1        7    45     6    51 chute              67
##  8        1        8    67     4    71 chute              91
##  9        1        9    91     4    95 ladder             76
## 10        1       10    76     1    77 <NA>               77
## #  with 36,846 more rows

This games object now contains the data for 10,000 games of Chutes and Ladders. Its nothing more than a bunch of outputs from the sumulate_game function all combined into one mega dataframe. Its got about 289K rows in it, so theres a lot of information. We can now take this and get some summarized information about each of the games. With summarize I have reduced this down into just one row per game, with information about how many turns the game took, as well as how many chutes and ladders I went through.

games_summary <- games %>%
  group_by(game_num) %>%
  summarize(turns = max(turn_num),
            n_chutes  = sum(chute_or_ladder == "chute", na.rm = TRUE),
            n_ladders = sum(chute_or_ladder == "ladder", na.rm = TRUE))
games_summary

## # A tibble: 1,000 x 4
##    game_num turns n_chutes n_ladders
##       <int> <dbl>    <int>     <int>
##  1        1    17        3         1
##  2        2     9        2         0
##  3        3    29        6         4
##  4        4    44        5         5
##  5        5    47        4         7
##  6        6    96        6        14
##  7        7    26        4         4
##  8        8    35        0         3
##  9        9    46        5         7
## 10       10    39        2         6
## #  with 990 more rows
…
one_long_game <- games %>%
    group_by(game_num) %>%
    filter(max(turn_num) == 197) %>%
    ungroup() %>%
    select(-game_num) %>%
    gather(timing, tile, start, land, end) %>%
    mutate(timing = factor(timing, levels = c("start", "land", "end"))) %>%
    arrange(turn_num, timing) %>%
    filter(!(is.na(chute_or_ladder) & timing == "land")) %>%
    left_join(tile_data, by = "tile") %>%
    rowid_to_column("t") %>%
    print()

## # A tibble: 440 x 8
##        t turn_num  roll chute_or_ladder timing  tile     x     y
##    <int>    <int> <int> <chr>           <fct>  <dbl> <dbl> <dbl>
##  1     1        1     5 <NA>            start      0    NA    NA
##  2     2        1     5 <NA>            end        5     5     1
##  3     3        2     3 <NA>            start      5     5     1
##  4     4        2     3 <NA>            end        8     8     1
##  5     5        3     5 <NA>            start      8     8     1
##  6     6        3     5 <NA>            end       13     8     2
##  7     7        4     2 <NA>            start     13     8     2
##  8     8        4     2 <NA>            end       15     6     2
##  9     9        5     4 <NA>            start     15     6     2
## 10    10        5     4 <NA>            end       19     2     2
## #  with 430 more rows
…
state_lengths <- one_long_game %>%
    head(n = 50) %>%
    group_by(turn_num) %>%
    count() %>%
    print()

## # A tibble: 24 x 2
## # Groups:   turn_num [24]
##    turn_num     n
##       <int> <int>
##  1        1     2
##  2        2     2
##  3        3     2
##  4        4     2
##  5        5     2
##  6        6     2
##  7        7     2
##  8        8     2
##  9        9     2
## 10       10     2
## #  with 14 more rows
…
Now Ill combine all this game data.

modified_games <- bind_rows(list(original = games,
                                 `w/o longest ladder`  = games_without_longest_ladder,
                                 `w/o longest chute`   = games_without_longest_chute),
                            .id = "modification") %>%
    group_by(modification, game_num) %>%
    summarize(turns = max(turn_num),
              n_chutes  = sum(chute_or_ladder == "chute", na.rm = TRUE),
              n_ladders = sum(chute_or_ladder == "ladder", na.rm = TRUE))
modified_games

## # A tibble: 3,000 x 5
## # Groups:   modification [3]
##    modification game_num turns n_chutes n_ladders
##    <chr>           <int> <dbl>    <int>     <int>
##  1 original            1    17        3         1
##  2 original            2     9        2         0
##  3 original            3    29        6         4
##  4 original            4    44        5         5
##  5 original            5    47        4         7
##  6 original            6    96        6        14
##  7 original            7    26        4         4
##  8 original            8    35        0         3
##  9 original            9    46        5         7
## 10 original           10    39        2         6
## #  with 2,990 more rows
…
